Tutorial losscurves
…
claimdata_tbl <- rawdata_tbl %>%
    mutate(acc_year   = as.character(accidentyear)
          ,dev_year   = developmentyear
          ,dev_lag    = developmentlag
          ,premium    = earnedpremdir
          ,cum_loss   = cumpaidloss
          ,loss_ratio = cum_loss / premium) %>%
    select(grcode, grname, lob, acc_year, dev_year, dev_lag, premium, cum_loss, loss_ratio)

With the data in the format we will use in this analysis, we take a look at it in tabular form:

print(claimdata_tbl)

## # A tibble: 14,600 x 9
##    grcode grname lob   acc_year dev_year dev_lag premium cum_loss
##    <chr>  <chr>  <chr> <chr>       <dbl>   <dbl>   <dbl>    <dbl>
##  1 43     IDS P~ ppau~ 1988         1988       1     957      133
##  2 43     IDS P~ ppau~ 1988         1989       2     957      333
##  3 43     IDS P~ ppau~ 1988         1990       3     957      431
##  4 43     IDS P~ ppau~ 1988         1991       4     957      570
##  5 43     IDS P~ ppau~ 1988         1992       5     957      615
##  6 43     IDS P~ ppau~ 1988         1993       6     957      615
##  7 43     IDS P~ ppau~ 1988         1994       7     957      615
##  8 43     IDS P~ ppau~ 1988         1995       8     957      614
##  9 43     IDS P~ ppau~ 1988         1996       9     957      614
## 10 43     IDS P~ ppau~ 1988         1997      10     957      614
## # ... with 14,590 more rows, and 1 more variable: loss_ratio <dbl>
…
